﻿{
  "dependencies": {
    "CacheManager.Core": "0.9.3",
    "EntityFramework": "6.1.3",
    "EntityFramework.Extended": "6.1.0.168",
    "LinqKit": "1.1.8",
    "Microsoft.Extensions.Configuration.Abstractions": "1.1.0"
  },
  "frameworks": {
    "net461": {}
  },
  "runtimes": {
    "win": {}
  }
}